Final Project
…
rd_tsbl <- rd_tbl %>%
  group_by(date) %>%
  summarise(ridership = sum(ridership)) %>%
  mutate(date = yearweek(date)) %>%
  filter(year(date) >= 2021) %>%
  group_by(date) %>%
  summarise(ridership = sum(ridership)) %>%
  as_tsibble(index = date)

rd_tsbl

# A tsibble: 161 x 2 [1W]
       date ridership
     <week>     <dbl>
 1 2021 W01      4627
 2 2021 W02      5010
 3 2021 W03      4979
 4 2021 W04      4812
 5 2021 W05      5377
 6 2021 W06      4716
 7 2021 W07      4927
 8 2021 W08      6026
 9 2021 W09      7112
10 2021 W10      7096
# ℹ 151 more rows
…
